…
homic_city$glm_model <- map(homic_city$data, ~broom::tidy(glm(hmc_resolve ~ victim_age + victim_sex + victim_race, data = .x, family = binomial()))) 

homic_city <- homic_city %>% 
  dplyr::select(city_state, glm_model) %>% 
  unnest() %>%
  filter(term == "victim_racenon-white") %>% 
  mutate(or = exp(estimate),
         confint_low = exp(estimate - std.error*1.96),
         confint_up = exp(estimate + std.error*1.96)) %>% 
  dplyr::select(city_state, term, estimate, or, confint_low, confint_up)
homic_city
```

    ## # A tibble: 47 x 6
    ##    city_state     term               estimate    or confint_low confint_up
    ##    <chr>          <chr>                 <dbl> <dbl>       <dbl>      <dbl>
    ##  1 Albuquerque,NM victim_racenon-wh~  -0.302  0.739      0.447       1.22 
    ##  2 Atlanta,GA     victim_racenon-wh~  -0.284  0.753      0.432       1.31 
    ##  3 Baltimore,MD   victim_racenon-wh~  -0.820  0.441      0.313       0.620
    ##  4 Baton Rouge,LA victim_racenon-wh~  -0.404  0.668      0.313       1.43 
    ##  5 Birmingham,AL  victim_racenon-wh~   0.0385 1.04       0.615       1.76 
    ##  6 Boston,MA      victim_racenon-wh~  -2.15   0.116      0.0480      0.282
    ##  7 Buffalo,NY     victim_racenon-wh~  -0.936  0.392      0.214       0.719
    ##  8 Charlotte,NC   victim_racenon-wh~  -0.584  0.558      0.321       0.969
    ##  9 Chicago,IL     victim_racenon-wh~  -0.576  0.562      0.431       0.733
    ## 10 Cincinnati,OH  victim_racenon-wh~  -1.14   0.318      0.184       0.551
    ## # ... with 37 more rows
…
